<?xml version="1.0" encoding="UTF-8"?>
<!DOCTYPE svg PUBLIC "-//W3C//DTD SVG 1.1//EN" "http://www.w3.org/Graphics/SVG/1.1/DTD/svg11.dtd">
<!-- Creator: CorelDRAW 2018 (64 Bit) -->
<svg xmlns="http://www.w3.org/2000/svg" xml:space="preserve" width="209.903mm" height="296.686mm" version="1.1" style="shape-rendering:geometricPrecision; text-rendering:geometricPrecision; image-rendering:optimizeQuality; fill-rule:evenodd; clip-rule:evenodd"
viewBox="0 0 20990.28 29668.6"
 xmlns:xlink="http://www.w3.org/1999/xlink">
 <defs>
  <style type="text/css">
   <![CDATA[
    .fil1 {fill:#FEFEFE}
    .fil0 {fill:#3F3863}
    .fil2 {fill:#3F3863;fill-rule:nonzero}
   ]]>
  </style>
 </defs>
 <g id="Camada_x0020_1">
  <metadata id="CorelCorpID_0Corel-Layer"/>
  <path class="fil0" d="M9076.85 9275.07l2832.15 0c630.7,0 1146.74,515.97 1146.74,1146.69l0 2831.99c0,630.86 -516.04,1146.7 -1146.74,1146.7l-2832.15 0c-630.72,0 -1146.61,-515.84 -1146.61,-1146.7l0 -2831.99c0,-630.72 515.89,-1146.69 1146.61,-1146.69z"/>
  <path class="fil1" d="M10903.93 13671.67l1219.63 -1773.32c0.97,-1.31 1.78,-2.57 2.57,-3.88 75.44,-117.25 51.71,-272.76 -55.83,-361.86l-220.41 -182.85c-113.22,-94.01 -280.06,-82.73 -379.67,25.64l-422.23 457.65 -0.89 -1704.9c2.42,-170.83 -136.24,-316.49 -309.12,-322.56l-199.61 -7.05c-174.01,-6.2 -322.69,130.3 -331.3,304.28l-36.91 762.18 -309.37 -8.63c-75.31,-2.12 -146.65,25.54 -200.9,77.81 -49.95,48.22 -79.21,111.7 -84.04,180.3l-294 -7.11c-151.91,-3.63 -279.66,116.91 -284.75,268.72l-0.35 52.17 -231.46 -12.09c-74.97,-3.94 -146.8,21.83 -202.26,72.51 -55.4,50.67 -87.45,119.94 -90.26,195.03 -0.07,2.59 23.76,1571.68 23.86,1573.3 2.79,58.51 23.53,113.72 59.94,159.59l320.23 403.72c51.55,64.97 146.01,75.85 210.96,24.34 64.97,-51.55 75.85,-145.98 24.32,-210.96l-315.51 -397.75 -23.14 -1518.63 220.04 11.48c0.74,2.07 1.26,4.59 1.21,6.73l-2.26 334.63c-0.23,35.58 11.94,68.4 32.46,94.26 27.3,34.39 69.39,56.56 116.71,56.91 82.93,0.54 150.6,-66.26 151.14,-149.17l4.41 -664.03 277.67 6.71 -0.02 447.51c0.02,35.2 12.16,67.62 32.46,93.23 27.49,34.68 70.03,56.9 117.7,56.91 82.91,0 150.16,-67.25 150.16,-150.14l0.02 -705.15 279.07 7.77 -31.62 682.53c-4.02,82.82 59.9,153.24 142.75,157.22 82.81,4.01 153.2,-59.88 157.22,-142.71l84.46 -1744.48c0.55,-10.71 9.84,-19.25 20.73,-18.85l199.64 7.03c10.88,0.39 19.54,9.55 19.43,20.4l1.09 2090.97c0.05,61.78 37.97,117.3 95.52,139.76 57.6,22.51 123.05,7.42 164.98,-38.04l667.4 -723.33 185.66 154.08 -1204.96 1751.93c-38.28,55.67 -33.91,128.08 6.04,178.4 9.04,11.42 19.94,21.71 32.6,30.41 68.3,47 161.8,29.71 208.79,-38.62z"/>
  <path class="fil1" d="M11808.42 11031.62c10.19,16.79 23.73,30.29 39.33,40.03 37.54,23.53 86.65,25.54 127.12,1.07l401.62 -242.59c57.35,-34.61 75.74,-109.16 41.13,-166.5 -34.61,-57.4 -109.17,-75.72 -166.45,-41.11l-401.62 242.59c-57.33,34.63 -75.74,109.17 -41.13,166.51z"/>
  <path class="fil1" d="M11538.57 10692c-37.05,55.75 -21.92,131.02 33.85,168.1 0.91,0.62 1.87,1.2 2.82,1.77 55.45,34.78 128.84,19.2 165.29,-35.65l476.41 -716.76c37.12,-55.8 21.92,-131.06 -33.85,-168.12 -55.61,-36.38 -131.06,-21.86 -168.11,33.87l-476.41 716.79z"/>
  <path class="fil1" d="M11254.3 10488.32c-11.4,51.48 11.72,102.54 53.99,129.04 11.43,7.15 24.23,12.53 38.16,15.59 65.35,14.51 130.13,-26.76 144.64,-92.16l116.61 -525.93c14.45,-65.36 -26.69,-130.13 -92.12,-144.64 -65.41,-14.5 -130.15,26.77 -144.68,92.17l-116.6 525.93z"/>
  <path class="fil1" d="M11947.03 11238.29c2.87,15.57 9.21,29.62 18.19,41.42 21.56,28.51 58.02,44.05 95.52,37.22l372.2 -67.96c53.15,-9.69 88.36,-60.63 78.69,-113.75 -9.68,-53.16 -60.66,-88.33 -113.73,-78.62l-372.2 67.94c-53.15,9.7 -88.36,60.62 -78.67,113.75z"/>
  <path class="fil2" d="M4420.3 18917.5m415.5 -687.85c20.45,0 38.75,7.54 52.76,21.53 13.99,13.99 20.45,31.21 20.45,51.66 0,20.47 -6.46,37.69 -20.45,51.68 -14.01,14 -32.31,20.45 -52.76,20.45l-99.03 0 0 469.32c0,20.47 -6.46,37.69 -20.45,51.68 -14,14 -31.22,21.53 -51.67,21.53 -20.45,0 -37.67,-7.53 -51.66,-21.53 -14.01,-13.99 -20.47,-31.21 -20.47,-51.68l0 -469.32 -100.09 0c-20.47,0 -36.61,-6.45 -50.61,-20.45 -13.99,-13.99 -21.52,-31.21 -21.52,-51.68 0,-20.45 7.53,-37.67 21.52,-51.66 14,-13.99 30.14,-21.53 50.61,-21.53l343.37 0z"/>
  <path class="fil2" d="M5775.82 18917.5m358.47 -145.32c20.45,0 37.67,7.54 51.66,21.53 13.99,13.99 20.45,31.21 20.45,50.58 0,20.47 -6.46,37.69 -20.45,51.68 -13.99,14 -31.21,21.53 -51.66,21.53l-286.34 0c-18.29,0 -35.51,-7.53 -49.52,-21.53 -15.07,-13.99 -22.61,-31.21 -22.61,-51.68l0 -541.45c0,-18.29 6.46,-35.51 20.45,-50.58 14.01,-15.07 31.23,-22.61 51.68,-22.61l286.34 0c20.45,0 37.67,7.54 51.66,21.53 13.99,13.99 20.45,31.21 20.45,51.66 0,20.47 -6.46,37.69 -20.45,51.68 -13.99,14 -31.21,20.45 -51.66,20.45l-215.3 0 0 104.42 143.17 0c19.39,0 36.61,7.54 50.6,21.53 13.99,13.99 21.53,31.21 21.53,51.66 0,20.45 -7.54,36.61 -21.53,50.6 -13.99,14 -31.21,21.53 -50.6,21.53l-143.17 0 0 147.47 215.3 0z"/>
  <path class="fil2" d="M7082.9 18917.5m395.06 -234.67c19.37,0 36.59,6.46 50.6,20.45 13.99,14.01 21.53,32.31 21.53,52.76 0,7.53 -1.08,13.99 -3.23,20.45 -3.23,6.45 -6.46,12.91 -9.69,20.45 -20.47,36.59 -50.6,65.67 -88.27,87.19 -37.67,22.61 -78.59,33.37 -122.72,33.37 -31.21,0 -62.43,-6.46 -91.5,-19.37 -29.06,-11.84 -54.89,-29.06 -77.5,-51.68 -22.6,-21.53 -40.91,-47.36 -53.83,-77.5 -13.99,-29.06 -20.45,-61.36 -20.45,-95.81l0 -198.05c0,-32.31 6.46,-63.52 19.37,-92.58 11.84,-29.06 29.08,-55.97 51.68,-78.59 22.61,-22.6 48.44,-39.82 77.5,-53.82 29.08,-12.91 61.36,-19.37 94.73,-19.37 43.05,0 83.97,10.76 121.64,32.29 37.67,22.6 67.81,52.76 90.43,91.5 3.23,5.38 5.38,10.77 8.61,18.3 2.15,7.53 3.23,13.99 3.23,20.45 0,20.45 -7.54,37.67 -21.53,51.66 -14.01,14.01 -31.23,21.55 -51.68,21.55 -16.14,0 -29.06,-4.31 -38.75,-12.92 -9.68,-7.55 -19.37,-18.31 -26.9,-30.15 -8.62,-13.99 -20.47,-25.83 -34.46,-34.44 -15.07,-8.62 -32.29,-12.92 -50.59,-12.92 -13.99,0 -25.83,2.15 -37.67,7.53 -11.84,5.39 -22.6,11.84 -31.23,20.45 -9.69,9.69 -16.14,20.45 -21.53,32.29 -5.38,11.86 -8.61,24.77 -8.61,38.77l0 198.05c0,14 3.23,26.91 8.61,38.75 5.39,11.86 11.84,22.62 21.53,31.23 8.63,9.69 19.39,16.15 31.23,21.53 11.84,5.38 23.68,7.53 37.67,7.53 18.3,0 35.52,-4.3 49.51,-12.91 13.99,-8.61 25.85,-20.45 35.54,-34.45 7.53,-11.85 16.14,-22.62 24.75,-30.15 8.61,-7.53 22.6,-11.84 41.98,-11.84z"/>
  <path class="fil2" d="M8421.19 18917.5m244.36 -687.85c33.36,0 63.51,6.46 92.57,18.3 29.07,12.92 53.82,30.14 76.42,52.74 22.61,22.62 39.84,48.45 53.83,77.51 12.92,29.06 20.45,61.35 21.53,95.81l0 370.28c0,20.47 -6.46,37.69 -20.45,51.68 -13.99,14 -31.23,21.53 -51.68,21.53 -20.45,0 -37.67,-7.53 -51.66,-21.53 -13.99,-13.99 -21.53,-31.21 -21.53,-51.68l0 -370.28c0,-13.99 -2.15,-26.91 -7.53,-38.76 -5.38,-11.84 -12.92,-22.61 -21.53,-32.29 -9.7,-8.61 -19.39,-15.07 -31.23,-20.45 -11.84,-5.38 -24.75,-7.54 -38.74,-7.54 -14,0 -26.91,2.16 -38.75,7.54 -11.84,5.38 -22.6,11.84 -31.21,20.45 -9.71,9.68 -16.17,20.45 -21.55,32.29 -5.38,11.85 -8.61,24.77 -8.61,38.76l0 370.28c0,20.47 -6.46,37.69 -20.45,51.68 -13.99,14 -31.21,21.53 -50.58,21.53 -20.45,0 -37.69,-7.53 -51.68,-21.53 -14,-13.99 -21.53,-31.21 -21.53,-51.68l0 -370.28c1.08,-33.38 7.53,-64.59 20.45,-93.66 11.84,-29.06 29.08,-54.89 51.68,-77.51 22.6,-21.52 48.43,-38.74 77.49,-51.66 29.08,-12.91 61.37,-20.45 94.74,-21.53z"/>
  <path class="fil2" d="M9785.33 18917.5m245.43 -687.85c33.36,0 63.5,6.46 92.58,18.3 29.06,12.92 53.81,30.14 76.42,52.74 21.52,22.62 38.76,48.45 52.75,77.51 12.92,29.06 20.45,61.35 21.53,95.81l0 198.06c-1.08,32.29 -8.61,63.52 -20.45,92.58 -12.92,30.13 -30.16,55.97 -51.68,78.57 -21.53,22.62 -46.28,40.91 -75.34,53.83 -29.06,13.99 -61.37,20.45 -95.81,20.45 -33.37,0 -63.5,-6.46 -92.58,-19.37 -29.06,-11.84 -54.89,-29.06 -77.49,-51.68 -22.61,-22.61 -39.85,-48.44 -52.76,-78.57 -13.99,-29.06 -21.53,-61.37 -22.6,-95.81l0 -198.06c1.07,-32.31 7.53,-63.52 20.45,-93.66 12.91,-29.06 30.15,-54.89 52.75,-77.51 21.53,-22.6 47.36,-39.82 77.5,-53.81 29.07,-12.92 61.36,-19.38 94.73,-19.38zm0 542.53c13.99,0 26.91,-2.15 38.75,-7.53 11.84,-5.38 21.52,-11.84 31.23,-21.53 8.61,-9.69 16.14,-20.45 21.52,-32.3 5.38,-11.84 7.54,-24.76 7.54,-38.75l0 -198.06c0,-13.99 -2.16,-26.91 -7.54,-38.76 -5.38,-11.84 -12.91,-22.61 -21.52,-32.29 -9.71,-8.61 -19.39,-15.07 -31.23,-20.45 -11.84,-5.38 -24.76,-7.54 -38.75,-7.54 -13.99,0 -26.91,2.16 -38.75,7.54 -11.84,5.38 -22.6,11.84 -32.3,20.45 -9.69,9.68 -16.15,20.45 -21.53,32.29 -5.38,11.85 -7.53,24.77 -7.53,38.76l0 198.06c0,27.98 9.68,51.68 29.06,71.05 19.39,19.37 43.06,29.06 71.05,29.06z"/>
  <path class="fil2" d="M11152.69 18917.5m344.47 -150.7c19.38,0 36.6,6.46 50.59,20.45 13.99,13.99 20.45,31.21 20.45,51.66 0,20.47 -6.46,37.69 -20.45,51.68 -13.99,13.99 -31.21,21.53 -50.59,21.53l-270.19 0c-20.45,0 -37.67,-7.54 -51.67,-21.53 -14,-13.99 -21.53,-31.21 -22.61,-51.68l0 -541.45c0,-20.45 7.54,-37.67 21.53,-51.66 14.01,-13.99 32.3,-20.45 52.75,-20.45 18.3,0 35.52,6.46 50.59,20.45 13.99,13.99 21.53,31.21 21.53,51.66l0 469.34 198.07 0z"/>
  <path class="fil2" d="M12418.89 18917.5m245.43 -687.85c33.36,0 63.5,6.46 92.58,18.3 29.06,12.92 53.81,30.14 76.41,52.74 21.53,22.62 38.77,48.45 52.76,77.51 12.92,29.06 20.45,61.35 21.53,95.81l0 198.06c-1.08,32.29 -8.61,63.52 -20.45,92.58 -12.92,30.13 -30.16,55.97 -51.68,78.57 -21.53,22.62 -46.28,40.91 -75.34,53.83 -29.06,13.99 -61.37,20.45 -95.81,20.45 -33.37,0 -63.5,-6.46 -92.58,-19.37 -29.06,-11.84 -54.89,-29.06 -77.5,-51.68 -22.6,-22.61 -39.84,-48.44 -52.75,-78.57 -13.99,-29.06 -21.53,-61.37 -22.6,-95.81l0 -198.06c1.07,-32.31 7.53,-63.52 20.45,-93.66 12.91,-29.06 30.15,-54.89 52.75,-77.51 21.53,-22.6 47.36,-39.82 77.5,-53.81 29.07,-12.92 61.36,-19.38 94.73,-19.38zm0 542.53c13.99,0 26.91,-2.15 38.74,-7.53 11.84,-5.38 21.53,-11.84 31.23,-21.53 8.62,-9.69 16.15,-20.45 21.53,-32.3 5.38,-11.84 7.53,-24.76 7.53,-38.75l0 -198.06c0,-13.99 -2.15,-26.91 -7.53,-38.76 -5.38,-11.84 -12.91,-22.61 -21.53,-32.29 -9.7,-8.61 -19.39,-15.07 -31.23,-20.45 -11.83,-5.38 -24.75,-7.54 -38.74,-7.54 -13.99,0 -26.91,2.16 -38.75,7.54 -11.84,5.38 -22.6,11.84 -32.31,20.45 -9.68,9.68 -16.14,20.45 -21.52,32.29 -5.38,11.85 -7.54,24.77 -7.54,38.76l0 198.06c0,27.98 9.69,51.68 29.06,71.05 19.39,19.37 43.07,29.06 71.06,29.06z"/>
  <path class="fil2" d="M13778.72 18917.5m416.58 -388.6c20.45,0 37.69,6.46 51.68,20.45 13.99,13.99 20.45,30.14 20.45,49.53l0 73.19c0,47.37 -11.84,90.42 -35.52,128.1 -23.69,38.74 -54.91,68.9 -93.65,89.35 -16.15,8.61 -34.45,15.06 -53.84,20.45 -19.37,5.38 -39.82,7.53 -60.27,7.53 -20.45,0 -40.9,-2.15 -59.2,-7.53 -19.39,-5.39 -37.69,-11.84 -55.98,-20.45 -38.75,-20.45 -69.96,-50.61 -93.66,-89.35 -24.75,-37.68 -36.59,-80.73 -36.59,-128.1l0 -198.06c1.07,-32.31 7.53,-63.52 20.45,-93.66 12.91,-29.06 30.15,-54.89 52.75,-77.51 21.53,-22.6 47.36,-39.82 77.5,-53.81 29.07,-12.92 61.36,-19.38 94.73,-19.38 43.05,0 83.97,10.77 122.72,33.37 37.67,22.6 68.88,53.83 91.5,92.58 0,1.08 0,2.15 1.07,3.23 5.39,11.84 8.62,22.6 8.62,34.44 0,20.45 -7.54,36.6 -21.53,50.59 -14.01,14.01 -31.23,21.54 -51.68,21.54 -13.99,0 -25.83,-3.23 -36.59,-10.76 -11.84,-6.46 -20.45,-15.09 -25.84,-26.93 -9.68,-16.14 -22.6,-29.06 -37.68,-38.74 -15.07,-9.69 -32.29,-14 -50.59,-14 -13.99,0 -26.91,2.16 -38.75,7.54 -11.84,5.38 -22.6,11.84 -31.23,20.45 -9.68,9.68 -16.14,20.45 -21.52,32.29 -5.39,11.85 -7.54,24.77 -7.54,38.76l0 198.06c0,13.99 2.15,26.91 7.54,38.75 5.38,11.85 11.84,22.61 21.52,32.3 8.63,9.69 19.39,16.15 31.23,21.53 11.84,5.38 24.76,7.53 38.75,7.53 13.99,0 26.91,-2.15 38.75,-7.53 11.84,-5.38 21.52,-11.84 31.23,-21.53 9.68,-9.69 17.22,-20.45 22.6,-32.3 5.38,-11.84 7.53,-24.76 7.53,-38.75 -20.45,0 -37.68,-7.54 -51.68,-21.53 -13.99,-13.99 -21.52,-31.21 -21.52,-51.66 0,-19.39 7.53,-35.54 21.52,-49.53 14,-13.99 31.23,-20.45 51.68,-20.45l71.04 0z"/>
  <path class="fil2" d="M15142.85 18917.5m73.21 -686.77c19.37,0 36.59,7.54 50.59,21.53 13.99,13.99 20.45,31.21 20.45,50.58l0 542.53c0,20.47 -6.46,36.61 -20.45,50.6 -14,14 -31.22,21.53 -50.59,21.53 -20.45,0 -37.67,-7.53 -51.68,-21.53 -13.99,-13.99 -21.53,-30.13 -21.53,-50.6l0 -542.53c0,-19.37 7.54,-36.59 21.53,-50.58 14.01,-13.99 31.23,-21.53 51.68,-21.53z"/>
  <path class="fil2" d="M16171.13 18917.5m430.58 -474.72c0,0 0,1.08 1.07,2.15l0 1.08 0 86.12 0 146.4 0 166.84c0,20.47 -6.45,36.61 -20.45,50.6 -13.99,14 -31.21,21.53 -51.66,21.53 -20.45,0 -37.67,-7.53 -51.66,-21.53 -14.01,-13.99 -21.55,-30.13 -21.55,-50.6l0 -125.93 -141.01 0 0 125.93c0,20.47 -7.53,36.61 -21.52,50.6 -14,14 -32.29,21.53 -52.74,21.53 -20.45,0 -36.62,-7.53 -50.61,-21.53 -13.99,-13.99 -20.45,-30.13 -20.45,-50.6l0 -166.84 0 -146.4 0 -86.12 0 -1.08 0 -2.15c0,-29.06 5.38,-57.04 17.22,-82.88 11.84,-25.83 26.93,-48.45 46.3,-67.82 19.38,-19.37 41.98,-34.44 68.89,-46.28 25.83,-10.76 53.83,-16.15 82.89,-16.15 29.06,0 57.04,5.39 83.95,16.15 25.85,11.84 48.45,26.91 67.82,46.28 19.38,19.37 34.45,41.99 46.29,67.82 11.84,25.84 17.22,53.82 17.22,82.88zm-144.25 3.23c0,-19.37 -6.45,-36.59 -20.45,-50.59 -13.99,-13.99 -31.21,-20.45 -50.58,-20.45 -19.38,0 -35.52,6.46 -49.53,20.45 -13.99,14 -20.45,31.22 -20.45,50.59l0 128.1 141.01 0 0 -128.1z"/>
  <path class="fil2" d="M4397.41 17915.54m1778.77 -1056.6c87.25,0 164.79,29.08 227.79,92.09 63.01,63 96.93,145.41 96.93,237.5 0,33.92 -4.84,63 -14.53,92.09 -14.54,29.08 -29.07,58.15 -43.62,92.07 -92.09,164.8 -227.79,295.67 -397.44,392.6 -169.64,101.78 -353.81,150.25 -552.54,150.25 -140.54,0 -281.1,-29.08 -411.97,-87.25 -130.86,-53.31 -247.18,-130.85 -348.96,-232.63 -101.78,-96.94 -184.18,-213.26 -242.34,-348.98 -63.01,-130.85 -92.09,-276.26 -92.09,-431.36l0 -891.81c0,-145.4 29.08,-285.96 87.23,-416.82 53.33,-130.87 130.87,-252.04 232.65,-353.81 101.78,-101.78 218.11,-179.33 348.98,-242.34 130.85,-58.17 276.26,-87.25 426.5,-87.25 193.89,0 378.06,48.47 547.69,145.4 169.64,101.8 305.35,237.5 407.13,411.98 14.55,24.23 24.24,48.46 38.78,82.4 9.69,33.92 14.53,63.02 14.53,92.09 0,92.09 -33.92,169.64 -96.93,232.64 -63,63.01 -140.54,96.93 -232.64,96.93 -72.7,0 -130.87,-19.37 -174.49,-58.15 -43.61,-33.92 -87.23,-82.39 -121.17,-135.72 -38.76,-63 -92.08,-116.31 -155.09,-155.09 -67.86,-38.78 -145.4,-58.17 -227.81,-58.17 -63,0 -116.31,9.7 -169.63,33.94 -53.31,24.23 -101.78,53.31 -140.55,92.09 -43.62,43.62 -72.7,92.09 -96.95,145.4 -24.23,53.31 -38.76,111.47 -38.76,174.48l0 891.81c0,63.01 14.53,121.17 38.76,174.48 24.25,53.33 53.33,101.79 96.95,140.56 38.77,43.62 87.24,72.7 140.55,96.93 53.32,24.24 106.63,33.94 169.63,33.94 82.41,0 159.95,-19.39 222.97,-58.17 62.99,-38.77 116.32,-92.08 159.93,-155.09 33.94,-53.31 72.7,-101.78 111.48,-135.72 38.78,-33.92 101.78,-53.31 189.03,-53.31z"/>
  <path class="fil2" d="M6672.76 17915.54m1909.64 -557.38c33.92,33.92 58.15,67.86 72.7,106.63 14.55,43.62 19.39,82.4 19.39,126.01 0,43.62 -4.84,82.4 -19.39,121.18 -14.55,43.61 -38.78,77.55 -72.7,111.47 -63.01,63.01 -140.56,92.09 -227.81,92.09 -92.07,0 -169.63,-29.08 -232.63,-92.09l-794.87 -794.87 0 557.37c0,92.1 -33.94,169.64 -96.94,232.66 -63.01,63.01 -140.56,96.93 -232.65,96.93 -87.25,0 -164.79,-33.92 -227.8,-96.93 -63,-63.02 -96.94,-140.56 -96.94,-232.66l0 -1667.28c4.86,-145.4 33.94,-285.96 92.09,-421.68 53.33,-130.85 130.87,-247.18 232.65,-348.96 101.78,-101.78 218.11,-179.34 348.96,-242.34 130.87,-58.17 276.28,-87.24 431.37,-87.24 140.56,0 281.11,29.07 411.99,87.24 130.85,58.16 247.18,135.7 348.96,232.64 101.77,101.79 179.34,218.1 242.33,348.97 58.18,135.72 87.25,281.12 87.25,431.37 0,232.65 -63.01,441.05 -189.02,620.39 -126.02,184.17 -295.65,319.88 -504.07,411.97l407.13 407.13zm-804.57 -1885.4c-63,0 -121.17,9.7 -174.48,33.93 -53.31,24.24 -101.78,53.32 -145.41,92.1 -43.62,43.6 -72.7,92.07 -96.93,145.4 -24.23,53.31 -33.92,111.46 -33.92,174.48 0,58.15 14.53,116.32 38.76,169.64 24.24,53.31 53.33,101.77 96.94,145.4 38.78,43.62 87.25,72.7 140.56,96.93 53.31,24.24 111.48,38.78 174.48,38.78 121.18,0 222.96,-43.62 315.05,-130.87 87.23,-82.39 130.86,-189.03 130.86,-319.88 0,-63.02 -9.69,-121.17 -33.92,-174.48 -24.24,-53.33 -58.17,-101.8 -96.94,-145.4 -43.62,-38.78 -92.09,-67.86 -145.4,-92.1 -53.33,-24.23 -111.48,-33.93 -169.65,-33.93z"/>
  <path class="fil2" d="M9054.75 17915.54m329.58 -3092.25c87.24,0 164.8,33.94 227.8,96.93 63.01,63.02 92.09,140.56 92.09,227.81l0 2442.77c0,92.09 -29.08,164.79 -92.09,227.81 -63,63.01 -140.56,96.93 -227.8,96.93 -92.09,0 -169.63,-33.92 -232.65,-96.93 -63.01,-63.02 -96.93,-135.72 -96.93,-227.81l0 -2442.77c0,-87.25 33.92,-164.79 96.93,-227.81 63.02,-62.99 140.56,-96.93 232.65,-96.93z"/>
  <path class="fil2" d="M9934.24 17915.54m1938.7 -2137.43c0,0 0,4.84 4.87,9.69l0 4.86 0 387.74 0 659.15 0 751.25c0,92.09 -29.1,164.79 -92.1,227.81 -63.01,63.01 -140.56,96.93 -232.65,96.93 -92.09,0 -169.63,-33.92 -232.65,-96.93 -63,-63.02 -96.93,-135.72 -96.93,-227.81l0 -567.06 -634.92 0 0 567.06c0,92.09 -33.94,164.79 -96.94,227.81 -63.01,63.01 -145.4,96.93 -237.49,96.93 -92.1,0 -164.8,-33.92 -227.81,-96.93 -63,-63.02 -92.08,-135.72 -92.08,-227.81l0 -751.25 0 -659.15 0 -387.74 0 -4.86 0 -9.69c0,-130.86 24.24,-256.88 77.55,-373.21 53.31,-116.31 121.17,-218.1 208.42,-305.34 87.23,-87.24 189.01,-155.1 310.17,-208.41 116.33,-48.47 242.36,-72.7 373.21,-72.7 130.86,0 256.89,24.23 378.06,72.7 116.32,53.31 218.1,121.17 305.33,208.41 87.25,87.24 155.11,189.03 208.42,305.34 53.31,116.33 77.54,242.35 77.54,373.21zm-649.46 14.55c0,-87.25 -29.08,-164.8 -92.09,-227.81 -63,-63 -140.55,-92.09 -227.8,-92.09 -87.24,0 -159.95,29.09 -222.94,92.09 -63.02,63.01 -92.09,140.56 -92.09,227.81l0 576.76 634.92 0 0 -576.76z"/>
  <path class="fil2" d="M12083.55 17915.54m1100.22 -3097.09c140.56,0 281.12,29.07 411.98,87.24 130.87,58.16 252.04,135.7 353.81,232.64 101.78,101.79 179.34,218.1 242.34,348.97 58.17,135.72 87.25,281.12 87.25,431.37 0,150.24 -29.08,295.65 -82.4,426.52 -58.16,135.7 -135.7,252.02 -232.64,353.8 -96.93,101.8 -213.26,179.34 -344.13,237.5 -135.7,58.17 -281.1,87.25 -436.21,87.25 -72.7,0 -150.24,-14.55 -222.95,-38.79 -77.54,-24.23 -150.24,-62.99 -222.94,-116.32l0 717.32c0,92.1 -33.94,169.64 -96.94,232.66 -63.01,63.01 -140.56,96.93 -232.65,96.93 -92.09,0 -164.79,-33.92 -227.81,-96.93 -62.99,-63.02 -96.93,-140.56 -96.93,-232.66l0 -1667.28c4.86,-140.56 33.94,-281.12 92.09,-411.98 58.17,-130.87 135.72,-252.04 237.49,-353.81 101.78,-101.78 218.11,-179.33 348.98,-242.34 130.86,-63.02 271.42,-92.09 421.66,-92.09zm0 1550.97c121.17,0 227.81,-43.62 315.04,-130.87 87.25,-82.39 130.87,-189.03 130.87,-319.88 0,-63.02 -9.7,-121.17 -33.93,-174.48 -24.24,-53.33 -58.16,-101.8 -96.94,-145.4 -43.61,-38.78 -87.23,-67.86 -140.54,-92.1 -53.33,-24.23 -111.48,-33.93 -174.5,-33.93 -63,0 -121.17,9.7 -174.48,33.93 -53.31,24.24 -101.78,53.32 -140.56,92.1 -43.62,43.6 -72.7,92.07 -96.93,145.4 -24.24,53.31 -33.92,111.46 -33.92,174.48 0,63 9.68,126.01 33.92,179.32 24.23,53.33 53.31,101.8 96.93,140.56 38.78,43.63 87.25,72.7 140.56,96.94 53.31,24.23 111.48,33.93 174.48,33.93z"/>
  <path class="fil2" d="M14392.8 17915.54m1100.22 -3097.09c140.56,0 281.12,29.07 411.98,87.24 130.87,58.16 252.04,135.7 353.82,232.64 101.78,101.79 179.34,218.1 242.34,348.97 58.17,135.72 87.24,281.12 87.24,431.37 0,150.24 -29.07,295.65 -82.4,426.52 -58.15,135.7 -135.7,252.02 -232.63,353.8 -96.94,101.8 -213.27,179.34 -344.14,237.5 -135.7,58.17 -281.1,87.25 -436.21,87.25 -72.7,0 -150.24,-14.55 -222.94,-38.79 -77.55,-24.23 -150.25,-62.99 -222.95,-116.32l0 717.32c0,92.1 -33.94,169.64 -96.93,232.66 -63.02,63.01 -140.56,96.93 -232.66,96.93 -92.09,0 -164.79,-33.92 -227.8,-96.93 -63,-63.02 -96.94,-140.56 -96.94,-232.66l0 -1667.28c4.86,-140.56 33.94,-281.12 92.09,-411.98 58.17,-130.87 135.72,-252.04 237.5,-353.81 101.78,-101.78 218.1,-179.33 348.97,-242.34 130.86,-63.02 271.42,-92.09 421.66,-92.09zm0 1550.97c121.17,0 227.81,-43.62 315.04,-130.87 87.25,-82.39 130.88,-189.03 130.88,-319.88 0,-63.02 -9.71,-121.17 -33.94,-174.48 -24.23,-53.33 -58.16,-101.8 -96.94,-145.4 -43.6,-38.78 -87.23,-67.86 -140.54,-92.1 -53.33,-24.23 -111.48,-33.93 -174.5,-33.93 -62.99,0 -121.16,9.7 -174.47,33.93 -53.32,24.24 -101.78,53.32 -140.56,92.1 -43.63,43.6 -72.71,92.07 -96.94,145.4 -24.23,53.31 -33.92,111.46 -33.92,174.48 0,63 9.69,126.01 33.92,179.32 24.23,53.33 53.31,101.8 96.94,140.56 38.78,43.63 87.24,72.7 140.56,96.94 53.31,24.23 111.48,33.93 174.47,33.93z"/>
 </g>
</svg>
